<?xml version="1.0" encoding="UTF-8" standalone="no"?>
<!-- Generator: Avocode 2.6.0 - http://avocode.com -->

<svg
   xmlns:dc="http://purl.org/dc/elements/1.1/"
   xmlns:cc="http://creativecommons.org/ns#"
   xmlns:rdf="http://www.w3.org/1999/02/22-rdf-syntax-ns#"
   xmlns:svg="http://www.w3.org/2000/svg"
   xmlns="http://www.w3.org/2000/svg"
   xmlns:sodipodi="http://sodipodi.sourceforge.net/DTD/sodipodi-0.dtd"
   xmlns:inkscape="http://www.inkscape.org/namespaces/inkscape"
   height="33"
   width="33"
   viewBox="0 0 33 33"
   id="svg2"
   version="1.1"
   inkscape:version="0.91 r13725"
   sodipodi:docname="kapital-icon.svg">
  <metadata
     id="metadata12">
    <rdf:RDF>
      <cc:Work
         rdf:about="">
        <dc:format>image/svg+xml</dc:format>
        <dc:type
           rdf:resource="http://purl.org/dc/dcmitype/StillImage" />
      </cc:Work>
    </rdf:RDF>
  </metadata>
  <defs
     id="defs10" />
  <sodipodi:namedview
     pagecolor="#ffffff"
     bordercolor="#666666"
     borderopacity="1"
     objecttolerance="10"
     gridtolerance="10"
     guidetolerance="10"
     inkscape:pageopacity="0"
     inkscape:pageshadow="2"
     inkscape:window-width="689"
     inkscape:window-height="480"
     id="namedview8"
     showgrid="false"
     inkscape:zoom="7.1515152"
     inkscape:cx="16.5"
     inkscape:cy="16.5"
     inkscape:window-x="0"
     inkscape:window-y="0"
     inkscape:window-maximized="0"
     inkscape:current-layer="svg2" />
  <path
     fill="#3f81c7"
     fill-rule="evenodd"
     d="M 16.5 33 C 25.61 33 33 25.61 33 16.5 C 33 7.39 25.61 0 16.5 0 C 7.39 0 0 7.39 0 16.5 C 0 25.61 7.39 33 16.5 33 Z M 16.5 33"
     id="path4"
     style="fill:#4a90e2;fill-opacity:1" />
  <path
     stroke-linejoin="miter"
     stroke-linecap="butt"
     stroke-width="0.3"
     stroke="#ffffff"
     fill="#ffffff"
     fill-rule="evenodd"
     d="M 9.54 11.47 L 8.36 11.47 C 8.16 11.47 8 11.63 8 11.83 C 8 12.02 8.16 12.18 8.36 12.18 L 9.54 12.18 C 9.73 12.18 9.9 12.02 9.9 11.83 C 9.9 11.63 9.73 11.47 9.54 11.47 L 9.54 11.47 Z M 9.54 18.27 L 8.36 18.27 C 8.16 18.27 8 18.43 8 18.63 C 8 18.82 8.16 18.98 8.36 18.98 L 9.54 18.98 C 9.73 18.98 9.9 18.82 9.9 18.63 C 9.9 18.43 9.73 18.27 9.54 18.27 L 9.54 18.27 Z M 9.54 14.87 L 8.36 14.87 C 8.16 14.87 8 15.03 8 15.23 C 8 15.42 8.16 15.58 8.36 15.58 L 9.54 15.58 C 9.73 15.58 9.9 15.42 9.9 15.23 C 9.9 15.03 9.73 14.87 9.54 14.87 L 9.54 14.87 Z M 9.54 21.67 L 8.36 21.67 C 8.16 21.67 8 21.83 8 22.03 C 8 22.22 8.16 22.38 8.36 22.38 L 9.54 22.38 C 9.73 22.38 9.9 22.22 9.9 22.03 C 9.9 21.83 9.73 21.67 9.54 21.67 L 9.54 21.67 Z M 12.61 19.1 C 12.7 19.1 12.8 19.06 12.87 18.99 L 16.67 15.24 L 19.5 18.04 C 19.57 18.11 19.66 18.14 19.76 18.14 C 19.85 18.14 19.94 18.11 20.01 18.04 L 24.61 13.5 C 24.75 13.36 24.75 13.14 24.61 13 C 24.47 12.86 24.24 12.86 24.1 13 L 19.76 17.28 L 16.92 14.48 C 16.86 14.42 16.76 14.38 16.67 14.38 C 16.57 14.38 16.48 14.42 16.41 14.48 L 12.35 18.49 C 12.21 18.63 12.21 18.85 12.35 18.99 C 12.42 19.06 12.52 19.1 12.61 19.1 L 12.61 19.1 Z M 9.54 8.07 L 8.36 8.07 C 8.16 8.07 8 8.23 8 8.43 C 8 8.62 8.16 8.78 8.36 8.78 L 9.54 8.78 C 9.73 8.78 9.9 8.62 9.9 8.43 C 9.9 8.23 9.73 8.07 9.54 8.07 L 9.54 8.07 Z M 24.5 23.13 C 24.3 23.13 24.13 23.29 24.13 23.49 L 24.13 24.64 C 24.13 24.84 24.3 25 24.5 25 C 24.7 25 24.86 24.84 24.86 24.64 L 24.86 23.49 C 24.86 23.29 24.7 23.13 24.5 23.13 L 24.5 23.13 Z M 21.05 23.13 C 20.85 23.13 20.69 23.29 20.69 23.49 L 20.69 24.64 C 20.69 24.84 20.85 25 21.05 25 C 21.25 25 21.41 24.84 21.41 24.64 L 21.41 23.49 C 21.41 23.29 21.25 23.13 21.05 23.13 L 21.05 23.13 Z M 24.64 21.67 L 10.92 21.67 L 10.92 8.36 C 10.92 8.16 10.75 8 10.55 8 C 10.35 8 10.19 8.16 10.19 8.36 L 10.19 22.03 C 10.19 22.22 10.35 22.38 10.55 22.38 L 24.64 22.38 C 24.84 22.38 25 22.22 25 22.03 C 25 21.83 24.84 21.67 24.64 21.67 L 24.64 21.67 Z M 14.16 23.13 C 13.96 23.13 13.8 23.29 13.8 23.49 L 13.8 24.64 C 13.8 24.84 13.96 25 14.16 25 C 14.36 25 14.53 24.84 14.53 24.64 L 14.53 23.49 C 14.53 23.29 14.36 23.13 14.16 23.13 L 14.16 23.13 Z M 17.61 23.13 C 17.41 23.13 17.25 23.29 17.25 23.49 L 17.25 24.64 C 17.25 24.84 17.41 25 17.61 25 C 17.81 25 17.97 24.84 17.97 24.64 L 17.97 23.49 C 17.97 23.29 17.81 23.13 17.61 23.13 L 17.61 23.13 Z M 10.72 23.13 C 10.52 23.13 10.36 23.29 10.36 23.49 L 10.36 24.64 C 10.36 24.84 10.52 25 10.72 25 C 10.92 25 11.08 24.84 11.08 24.64 L 11.08 23.49 C 11.08 23.29 10.92 23.13 10.72 23.13 L 10.72 23.13 Z M 10.72 23.13"
     id="path6" />
</svg>
