<?xml version="1.0" encoding="UTF-8" standalone="no"?>
<svg
   xmlns:dc="http://purl.org/dc/elements/1.1/"
   xmlns:cc="http://creativecommons.org/ns#"
   xmlns:rdf="http://www.w3.org/1999/02/22-rdf-syntax-ns#"
   xmlns:svg="http://www.w3.org/2000/svg"
   xmlns="http://www.w3.org/2000/svg"
   xmlns:sodipodi="http://sodipodi.sourceforge.net/DTD/sodipodi-0.dtd"
   xmlns:inkscape="http://www.inkscape.org/namespaces/inkscape"
   id="SvgjsSvg1029"
   version="1.1"
   width="29"
   height="30"
   inkscape:version="0.91 r13725"
   sodipodi:docname="icon-facebook.svg">
  <metadata
     id="metadata32">
    <rdf:RDF>
      <cc:Work
         rdf:about="">
        <dc:format>image/svg+xml</dc:format>
        <dc:type
           rdf:resource="http://purl.org/dc/dcmitype/StillImage" />
      </cc:Work>
    </rdf:RDF>
  </metadata>
  <sodipodi:namedview
     pagecolor="#ffffff"
     bordercolor="#666666"
     borderopacity="1"
     objecttolerance="10"
     gridtolerance="10"
     guidetolerance="10"
     inkscape:pageopacity="0"
     inkscape:pageshadow="2"
     inkscape:window-width="1217"
     inkscape:window-height="647"
     id="namedview30"
     showgrid="false"
     inkscape:zoom="7.8666667"
     inkscape:cx="19.594578"
     inkscape:cy="23.300742"
     inkscape:window-x="3754"
     inkscape:window-y="245"
     inkscape:window-maximized="0"
     inkscape:current-layer="SvgjsSvg1029" />
  <defs
     id="SvgjsDefs1030" />
  <path
     d="m 20.46,21.67 -3.49,0 0,-5.39 1.77,0 0.27,-2.3 -2.04,0 0,-1.38 c 0,-0.62 0.16,-0.93 1.02,-0.93 l 1.22,0 0,-2.01 C 18.84,9.63 18.26,9.57 17.5,9.57 c -1.58,0 -2.77,0.99 -2.77,2.82 l 0,1.59 -1.87,0 0,2.3 1.87,0 0,5.39 -6.47,0 c -0.42,0 -0.63,-0.46 -0.63,-0.89 l 0,-12.56 c 0,-0.43 0.21,-0.78 0.63,-0.78 l 12.2,0 c 0.41,0 0.62,0.35 0.62,0.78 l 0,12.56 c 0,0.43 -0.21,0.89 -0.62,0.89 z"
     id="SvgjsPath1031"
     style="fill:#ffffff" />
</svg>
