<?xml version="1.0" encoding="UTF-8" standalone="no"?>
<svg
   xmlns:dc="http://purl.org/dc/elements/1.1/"
   xmlns:cc="http://creativecommons.org/ns#"
   xmlns:rdf="http://www.w3.org/1999/02/22-rdf-syntax-ns#"
   xmlns:svg="http://www.w3.org/2000/svg"
   xmlns="http://www.w3.org/2000/svg"
   xmlns:sodipodi="http://sodipodi.sourceforge.net/DTD/sodipodi-0.dtd"
   xmlns:inkscape="http://www.inkscape.org/namespaces/inkscape"
   id="SvgjsSvg1032"
   version="1.1"
   width="29"
   height="30"
   inkscape:version="0.91 r13725"
   sodipodi:docname="icon-linkedin.svg">
  <metadata
     id="metadata19">
    <rdf:RDF>
      <cc:Work
         rdf:about="">
        <dc:format>image/svg+xml</dc:format>
        <dc:type
           rdf:resource="http://purl.org/dc/dcmitype/StillImage" />
      </cc:Work>
    </rdf:RDF>
  </metadata>
  <sodipodi:namedview
     pagecolor="#ffffff"
     bordercolor="#666666"
     borderopacity="1"
     objecttolerance="10"
     gridtolerance="10"
     guidetolerance="10"
     inkscape:pageopacity="0"
     inkscape:pageshadow="2"
     inkscape:window-width="640"
     inkscape:window-height="480"
     id="namedview17"
     showgrid="false"
     inkscape:zoom="7.8666667"
     inkscape:cx="14.5"
     inkscape:cy="15"
     inkscape:window-x="2030"
     inkscape:window-y="505"
     inkscape:window-maximized="0"
     inkscape:current-layer="SvgjsSvg1032" />
  <defs
     id="SvgjsDefs1033" />
  <path
     d="m 8.01,12.26 2.61,0 0,8.85 -2.61,0 z"
     id="path6332"
     style="fill:#ffffff" />
  <path
     d="m 9.14,11.49 c -0.97,0 -1.6,-0.76 -1.6,-1.61 0,-0.87 0.65,-1.57 1.64,-1.57 0.99,0 1.6,0.72 1.62,1.59 0,0.85 -0.63,1.59 -1.64,1.59 z"
     id="path6330"
     style="fill:#ffffff" />
  <path
     d="m 18.09,21.11 0,-4.48 c 0,-1.19 -0.39,-2 -1.44,-2 -0.79,0 -1.26,0.55 -1.47,1.07 -0.08,0.19 -0.08,0.45 -0.08,0.72 l 0,4.69 -2.89,0 c 0,0 0.04,-8.08 0,-8.85 l 2.89,0 0,1.51 c 0.37,-0.6 1.27,-1.46 2.81,-1.46 1.91,0 3.54,1.26 3.54,3.98 l 0,4.82 z"
     id="SvgjsPath1034"
     style="fill:#ffffff" />
</svg>
