<?xml version="1.0" encoding="utf-8"?>
<!-- Generator: Avocode 2.6.0 - http://avocode.com -->
<svg height="38" width="38" xmlns:xlink="http://www.w3.org/1999/xlink" xmlns="http://www.w3.org/2000/svg" viewBox="0 0 38 38">
    <path fill="#187fb8" fill-rule="evenodd" d="M 19 0 C 8.51 0 0 8.51 0 19 C 0 29.49 8.51 38 19 38 C 29.49 38 38 29.49 38 19 C 38 8.51 29.49 0 19 0 L 19 0 Z M 10.73 15.95 L 14.23 15.95 L 14.23 27.46 L 10.73 27.46 L 10.73 15.95 Z M 12.28 14.95 L 12.25 14.95 C 10.95 14.95 10.1 13.95 10.1 12.85 C 10.1 11.72 10.97 10.8 12.3 10.8 C 13.63 10.8 14.44 11.75 14.47 12.88 C 14.47 13.98 13.63 14.95 12.28 14.95 L 12.28 14.95 Z M 28.75 27.46 L 24.24 27.46 L 24.24 21.63 C 24.24 20.08 23.73 19.03 22.32 19.03 C 21.25 19.03 20.63 19.74 20.35 20.43 C 20.24 20.67 20.24 21.01 20.24 21.36 L 20.24 27.46 L 16.37 27.46 C 16.37 27.46 16.42 16.95 16.37 15.95 L 20.24 15.95 L 20.24 17.92 C 20.74 17.14 21.94 16.02 24 16.02 C 26.56 16.02 28.75 17.66 28.75 21.19 L 28.75 27.46 L 28.75 27.46 Z M 28.75 27.46" />
</svg>