<?xml version="1.0" encoding="utf-8"?>
<!-- Generator: Avocode 2.6.0 - http://avocode.com -->
<svg height="24" width="24" xmlns:xlink="http://www.w3.org/1999/xlink" xmlns="http://www.w3.org/2000/svg" viewBox="0 0 24 24">
    <path fill="#3f81c7" fill-rule="evenodd" d="M 12 24 C 18.63 24 24 18.63 24 12 C 24 5.37 18.63 0 12 0 C 5.37 0 0 5.37 0 12 C 0 18.63 5.37 24 12 24 Z M 12 24" />
    <path stroke-linejoin="miter" stroke-linecap="butt" stroke-width="0.3" stroke="#ffffff" fill="#ffffff" fill-rule="evenodd" d="M 7.97 9.47 C 7.05 9.59 6.36 10.37 6.36 11.29 L 6.36 16.74 C 6.36 17.75 7.19 18.58 8.2 18.58 L 16.16 18.58 C 17.17 18.58 18 17.75 18 16.74 L 18 11.29 C 18 10.37 17.31 9.59 16.36 9.47 L 7.97 9.47 Z M 17.52 16.74 C 17.52 17.49 16.91 18.1 16.16 18.1 L 8.2 18.1 C 7.45 18.1 6.84 17.49 6.84 16.74 L 6.84 11.29 C 6.84 10.61 7.35 10.04 8 9.95 L 16.33 9.95 C 17.01 10.04 17.52 10.61 17.52 11.29 L 17.52 16.74 L 17.52 16.74 Z M 7.99 8.89 C 8.13 8.9 8.24 8.79 8.24 8.65 C 8.28 6.68 9.98 4.48 12.18 4.48 C 14.38 4.48 16.08 6.68 16.12 8.65 C 16.12 8.79 16.23 8.89 16.36 8.89 L 16.36 8.89 C 16.5 8.89 16.6 8.78 16.6 8.64 C 16.55 6.45 14.72 4 12.18 4 C 9.64 4 7.81 6.45 7.76 8.64 C 7.76 8.78 7.86 8.89 7.99 8.89 L 7.99 8.89 Z M 12.18 11.92 C 11.47 11.92 10.9 12.49 10.9 13.2 C 10.9 13.67 11.15 14.1 11.56 14.32 L 11.56 15.62 C 11.56 15.96 11.84 16.24 12.18 16.24 C 12.52 16.24 12.8 15.96 12.8 15.62 L 12.8 14.32 C 13.21 14.1 13.46 13.67 13.46 13.2 C 13.46 12.49 12.89 11.92 12.18 11.92 L 12.18 11.92 Z M 12.47 13.95 C 12.38 13.98 12.32 14.07 12.32 14.17 L 12.32 15.62 C 12.32 15.7 12.26 15.76 12.18 15.76 C 12.1 15.76 12.04 15.7 12.04 15.62 L 12.04 14.17 C 12.04 14.07 11.98 13.98 11.89 13.95 C 11.58 13.82 11.38 13.53 11.38 13.2 C 11.38 12.76 11.74 12.4 12.18 12.4 C 12.62 12.4 12.98 12.76 12.98 13.2 C 12.98 13.53 12.78 13.82 12.47 13.95 L 12.47 13.95 Z M 12.47 13.95" />
</svg>