<?xml version="1.0" encoding="UTF-8" standalone="no"?>
<svg width="38px" height="37px" viewBox="0 0 38 37" version="1.1" xmlns="http://www.w3.org/2000/svg" xmlns:xlink="http://www.w3.org/1999/xlink">
    <!-- Generator: Sketch 39.1 (31720) - http://www.bohemiancoding.com/sketch -->
    <title>bank-building</title>
    <desc>Created with Sketch.</desc>
    <defs></defs>
    <g id="Page-1" stroke="none" stroke-width="1" fill="none" fill-rule="evenodd">
        <g id="bank-building" fill="#3F81C7">
            <g id="Capa_1">
                <g id="Layer_1_78_">
                    <g id="Group">
                        <path d="M35.5022917,33.6290638 L1.691,33.6290638 C0.756833333,33.6290638 0,34.3816596 0,35.311383 C0,36.2395319 0.756833333,36.9921277 1.691,36.9921277 L35.5015,36.9921277 C36.4356667,36.9921277 37.1925,36.2395319 37.1925,35.311383 C37.1917083,34.3816596 36.434875,33.6290638 35.5022917,33.6290638 L35.5022917,33.6290638 Z" id="Shape"></path>
                        <path d="M3.80395833,29.2575532 C2.86979167,29.2575532 2.11295833,30.0101489 2.11295833,30.9390851 C2.11295833,31.8680213 2.86979167,32.6214043 3.80395833,32.6214043 L33.3885417,32.6214043 C34.3227083,32.6214043 35.0795417,31.8680213 35.0795417,30.9390851 C35.0795417,30.0101489 34.3227083,29.2575532 33.3885417,29.2575532 L32.9665833,29.2575532 L32.9665833,14.1269149 L33.3885417,14.1269149 C33.8564167,14.1269149 34.23325,13.750617 34.23325,13.2869362 C34.23325,12.8232553 33.8548333,12.4469574 33.3885417,12.4469574 L3.80395833,12.4469574 C3.336875,12.4469574 2.95925,12.8232553 2.95925,13.2869362 C2.95925,13.750617 3.33766667,14.1269149 3.80395833,14.1269149 L4.22670833,14.1269149 L4.22670833,29.256766 L3.80395833,29.256766 L3.80395833,29.2575532 Z M29.5845833,14.1269149 L29.5845833,29.256766 L24.5131667,29.256766 L24.5131667,14.1269149 L29.5845833,14.1269149 L29.5845833,14.1269149 Z M21.1311667,14.1269149 L21.1311667,29.256766 L16.05975,29.256766 L16.05975,14.1269149 L21.1311667,14.1269149 L21.1311667,14.1269149 Z M7.607125,14.1269149 L12.6785417,14.1269149 L12.6785417,29.256766 L7.607125,29.256766 L7.607125,14.1269149 L7.607125,14.1269149 Z" id="Shape"></path>
                        <path d="M1.691,10.9354681 L35.5015,10.9354681 L35.518125,10.9354681 C36.4530833,10.9354681 37.209125,10.1828723 37.209125,9.25393617 C37.209125,8.51551064 36.7309583,7.88965957 36.06675,7.66293617 L19.2913333,0.156659574 C18.850375,-0.0401489362 18.3460833,-0.0401489362 17.9043333,0.156659574 L0.9975,7.72119149 C0.269958333,8.04710638 -0.129833333,8.83276596 0.038,9.60740426 C0.205041667,10.3820426 0.893791667,10.9354681 1.691,10.9354681 L1.691,10.9354681 Z" id="Shape"></path>
                    </g>
                </g>
            </g>
        </g>
    </g>
</svg>
