<?xml version="1.0" encoding="utf-8"?>
<!-- Generator: Avocode 2.6.0 - http://avocode.com -->
<svg height="13" width="13" xmlns:xlink="http://www.w3.org/1999/xlink" xmlns="http://www.w3.org/2000/svg" viewBox="0 0 13 13">
    <path stroke-linejoin="miter" stroke-linecap="butt" stroke-width="0.2" stroke="#5b5c59" fill="#5b5c59" fill-rule="evenodd" d="M 6.5 1 C 3.47 1 1 3.47 1 6.5 C 1 9.53 3.47 12 6.5 12 C 9.53 12 12 9.53 12 6.5 C 12 3.47 9.53 1 6.5 1 L 6.5 1 Z M 6.67 11.6 L 6.67 10.78 C 6.67 10.67 6.58 10.59 6.47 10.59 C 6.36 10.59 6.28 10.67 6.28 10.78 L 6.28 11.6 C 3.62 11.48 1.49 9.34 1.4 6.68 L 2.26 6.68 C 2.37 6.68 2.46 6.59 2.46 6.49 C 2.46 6.38 2.37 6.29 2.26 6.29 L 1.4 6.29 C 1.51 3.64 3.63 1.51 6.28 1.4 C 6.28 1.41 6.28 1.41 6.28 1.42 L 6.28 2.29 C 6.28 2.4 6.36 2.48 6.47 2.48 C 6.58 2.48 6.67 2.4 6.67 2.29 L 6.67 1.42 C 6.67 1.41 6.66 1.41 6.66 1.4 C 9.34 1.48 11.49 3.62 11.6 6.29 L 10.76 6.29 C 10.65 6.29 10.56 6.38 10.56 6.49 C 10.56 6.59 10.65 6.68 10.76 6.68 L 11.6 6.68 C 11.51 9.36 9.35 11.52 6.67 11.6 L 6.67 11.6 Z M 8.62 4.8 L 6.86 6.03 C 6.76 5.95 6.63 5.89 6.48 5.89 C 6.41 5.89 6.35 5.91 6.29 5.93 L 4.73 3.7 C 4.66 3.61 4.54 3.59 4.46 3.65 C 4.37 3.71 4.35 3.83 4.41 3.92 L 5.98 6.15 C 5.91 6.26 5.86 6.38 5.86 6.51 C 5.86 6.85 6.14 7.13 6.48 7.13 C 6.82 7.13 7.1 6.85 7.1 6.51 C 7.1 6.46 7.09 6.41 7.08 6.36 L 8.85 5.12 C 8.93 5.06 8.95 4.94 8.89 4.85 C 8.83 4.76 8.71 4.74 8.62 4.8 L 8.62 4.8 Z M 6.48 6.74 C 6.35 6.74 6.25 6.64 6.25 6.51 C 6.25 6.39 6.35 6.28 6.48 6.28 C 6.61 6.28 6.71 6.39 6.71 6.51 C 6.71 6.64 6.61 6.74 6.48 6.74 L 6.48 6.74 Z M 6.48 6.74" />
</svg>