<?xml version="1.0" encoding="utf-8"?>
<!-- Generator: Avocode 2.6.0 - http://avocode.com -->
<svg height="5" width="11" xmlns:xlink="http://www.w3.org/1999/xlink" xmlns="http://www.w3.org/2000/svg" viewBox="0 0 11 5">
    <path stroke-linejoin="miter" stroke-linecap="butt" stroke-width="1" stroke="#777777" fill="none" fill-rule="evenodd" d="M 1 0 L 5.74 4.74 L 10.46 0.02" />
</svg>