<?xml version="1.0" encoding="UTF-8" standalone="no"?>
<svg
   xmlns:dc="http://purl.org/dc/elements/1.1/"
   xmlns:cc="http://creativecommons.org/ns#"
   xmlns:rdf="http://www.w3.org/1999/02/22-rdf-syntax-ns#"
   xmlns:svg="http://www.w3.org/2000/svg"
   xmlns="http://www.w3.org/2000/svg"
   xmlns:sodipodi="http://sodipodi.sourceforge.net/DTD/sodipodi-0.dtd"
   xmlns:inkscape="http://www.inkscape.org/namespaces/inkscape"
   id="SvgjsSvg1094"
   version="1.1"
   width="12"
   height="34"
   inkscape:version="0.91 r13725"
   sodipodi:docname="finish.svg">
  <metadata
     id="metadata8">
    <rdf:RDF>
      <cc:Work
         rdf:about="">
        <dc:format>image/svg+xml</dc:format>
        <dc:type
           rdf:resource="http://purl.org/dc/dcmitype/StillImage" />
      </cc:Work>
    </rdf:RDF>
  </metadata>
  <sodipodi:namedview
     pagecolor="#ffffff"
     bordercolor="#666666"
     borderopacity="1"
     objecttolerance="10"
     gridtolerance="10"
     guidetolerance="10"
     inkscape:pageopacity="0"
     inkscape:pageshadow="2"
     inkscape:window-width="745"
     inkscape:window-height="480"
     id="namedview6"
     showgrid="false"
     inkscape:zoom="6.9411765"
     inkscape:cx="6"
     inkscape:cy="17"
     inkscape:window-x="3389"
     inkscape:window-y="401"
     inkscape:window-maximized="0"
     inkscape:current-layer="SvgjsSvg1094" />
  <defs
     id="SvgjsDefs1095" />
  <path
     id="SvgjsPath1096"
     d="M931 789L931 757 "
     fill-opacity="0"
     fill="#ffffff"
     stroke-dasharray="0"
     stroke-linejoin="miter"
     stroke-linecap="square"
     stroke-opacity="1"
     stroke="#dddddd"
     stroke-miterlimit="50"
     stroke-width="2"
     transform="matrix(1,0,0,1,-930,-756)"
     style="fill:#3f81c7;fill-opacity:1;stroke:#3f81c7;stroke-opacity:1" />
  <path
     id="SvgjsPath1097"
     d="M941 760.5L932 765L932 756Z "
     fill="#dddddd"
     fill-opacity="1"
     transform="matrix(1,0,0,1,-930,-756)"
     style="fill:#3f81c7;fill-opacity:1" />
</svg>
