<?xml version="1.0" encoding="UTF-8" standalone="no"?>
<svg width="28px" height="37px" viewBox="0 0 28 37" version="1.1" xmlns="http://www.w3.org/2000/svg" xmlns:xlink="http://www.w3.org/1999/xlink">
    <!-- Generator: Sketch 39.1 (31720) - http://www.bohemiancoding.com/sketch -->
    <title>manager</title>
    <desc>Created with Sketch.</desc>
    <defs></defs>
    <g id="Page-1" stroke="none" stroke-width="1" fill="none" fill-rule="evenodd">
        <g id="manager" fill="#3F81C7">
            <g id="Group">
                <path d="M14.0071088,14.5594263 C17.9577202,14.5594263 21.1716269,11.2936972 21.1716269,7.27971315 C21.171772,3.26558167 17.9577202,0 14.0071088,0 C10.0564974,0 6.84259067,3.26558167 6.84259067,7.27971315 C6.84259067,11.2938446 10.0566425,14.5594263 14.0071088,14.5594263 L14.0071088,14.5594263 Z" id="Shape"></path>
                <path d="M25.4364878,36.8903262 C26.8158595,36.8903262 27.9638764,35.2617382 27.9638764,34.183872 C27.9638764,34.183872 27.9638756,25.4607171 27.9638756,25.4607171 L27.9638756,24.1763307 C27.9638756,21.4060478 26.211772,18.9496016 23.6209741,18.087251 L19.8193575,17.4457211 C19.4968497,17.3448924 19.1521451,17.5183944 19.036228,17.8416653 L14.7364145,29.8289283 C14.4883316,30.5204303 13.5257409,30.5204303 13.277658,29.8289283 L8.97784456,17.8416653 C8.88412435,17.5806016 8.64169948,17.4169761 8.38186528,17.4169761 C8.32020725,17.4169761 4.40528497,18.0823865 4.40528497,18.0823865 C1.79316062,18.9668486 0.0478756477,21.4272749 0.0478756477,24.209498 L0.0478756477,34.1838725 C0.0478756477,35.6786135 1.24041451,36.8903267 2.71150259,36.8903267 L20.6148187,36.8903267 C20.598944,36.7643274 25.4364878,36.8903262 25.4364878,36.8903262 Z" id="Shape"></path>
                <path d="M15.5939689,16.7155976 C15.426114,16.5298606 15.1807876,16.436255 14.9327047,16.436255 L13.081658,16.436255 C12.8334301,16.436255 12.5881036,16.5297131 12.4203938,16.7155976 C12.1605596,17.0031952 12.1228394,17.4185976 12.3073782,17.7433426 L13.2968083,19.2590159 L12.8335751,23.2293665 L13.7456788,25.6948048 C13.8346114,25.942749 14.1797513,25.942749 14.2686839,25.6948048 L15.1807876,23.2293665 L14.7175544,19.2590159 L15.7069845,17.7433426 C15.8915233,17.4185976 15.8538031,17.0031952 15.5939689,16.7155976 L15.5939689,16.7155976 Z" id="Shape"></path>
            </g>
        </g>
    </g>
</svg>
