<?xml version="1.0" encoding="UTF-8" standalone="no"?>
<!-- Generator: Avocode 2.6.0 - http://avocode.com -->

<svg
   xmlns:dc="http://purl.org/dc/elements/1.1/"
   xmlns:cc="http://creativecommons.org/ns#"
   xmlns:rdf="http://www.w3.org/1999/02/22-rdf-syntax-ns#"
   xmlns:svg="http://www.w3.org/2000/svg"
   xmlns="http://www.w3.org/2000/svg"
   xmlns:sodipodi="http://sodipodi.sourceforge.net/DTD/sodipodi-0.dtd"
   xmlns:inkscape="http://www.inkscape.org/namespaces/inkscape"
   height="16"
   width="16"
   viewBox="0 0 16 16"
   id="svg2"
   version="1.1"
   inkscape:version="0.91 r13725"
   sodipodi:docname="procent-range.svg">
  <metadata
     id="metadata14">
    <rdf:RDF>
      <cc:Work
         rdf:about="">
        <dc:format>image/svg+xml</dc:format>
        <dc:type
           rdf:resource="http://purl.org/dc/dcmitype/StillImage" />
      </cc:Work>
    </rdf:RDF>
  </metadata>
  <defs
     id="defs12" />
  <sodipodi:namedview
     pagecolor="#ffffff"
     bordercolor="#666666"
     borderopacity="1"
     objecttolerance="10"
     gridtolerance="10"
     guidetolerance="10"
     inkscape:pageopacity="0"
     inkscape:pageshadow="2"
     inkscape:window-width="1161"
     inkscape:window-height="731"
     id="namedview10"
     showgrid="false"
     inkscape:zoom="29.5"
     inkscape:cx="8.9846039"
     inkscape:cy="8.0719299"
     inkscape:window-x="1335"
     inkscape:window-y="96"
     inkscape:window-maximized="0"
     inkscape:current-layer="svg2" />
  <path
     fill="#3f81c7"
     fill-rule="evenodd"
     d="M 8 16 C 12.42 16 16 12.42 16 8 C 16 3.58 12.42 0 8 0 C 3.58 0 0 3.58 0 8 C 0 12.42 3.58 16 8 16 Z M 8 16"
     id="path4" />
  <g
     transform="matrix(1.0393051,0,0,0.96218137,0.27118644,0.27118644)"
     style="font-weight:700;font-size:9.91234493px;font-family:'Helvetica Neue';fill:#ffffff"
     id="text6">
    <path
       d="m 3.5942306,6.0905064 q 0,-0.9534824 0.4162411,-1.4132835 0.421081,-0.4598012 1.1374028,-0.4598012 0.7405219,0 1.156763,0.4598012 0.421081,0.4549611 0.421081,1.4132835 0,0.9534824 -0.421081,1.4132836 -0.4162411,0.4598011 -1.1325629,0.4598011 -0.7405219,0 -1.1616029,-0.4549611 Q 3.5942306,7.0488288 3.5942306,6.0905064 Z m 1.0599627,-0.00968 q 0,0.6921217 0.1597204,0.9292823 0.1210003,0.1742405 0.3339608,0.1742405 0.2178006,0 0.3388009,-0.1742405 0.1548804,-0.2371606 0.1548804,-0.9292823 0,-0.6921218 -0.1548804,-0.9244423 -0.1210003,-0.1790805 -0.3388009,-0.1790805 -0.2129605,0 -0.3339608,0.1742405 -0.1597204,0.2371605 -0.1597204,0.9292823 z m 1.5294438,5.6240946 -1.0067225,0 3.7800495,-7.4874993 0.9776825,0 -3.7510095,7.4874993 z M 8.3810027,9.8415158 q 0,-0.9534824 0.416241,-1.4132835 0.4210811,-0.4598012 1.1470829,-0.4598012 0.7308414,0 1.1470824,0.4598012 0.421082,0.4598011 0.421082,1.4132835 0,0.9583222 -0.421082,1.4181232 -0.416241,0.459802 -1.1325624,0.459802 -0.7405218,0 -1.1616029,-0.459802 -0.416241,-0.459801 -0.416241,-1.4181232 z m 1.0599626,-0.00484 q 0,0.6921222 0.1597204,0.9244422 0.1210003,0.179081 0.3339609,0.179081 0.2178004,0 0.3339604,-0.174241 0.159721,-0.23716 0.159721,-0.9292822 0,-0.6921217 -0.154881,-0.9292823 -0.121,-0.1742404 -0.3388004,-0.1742404 -0.2178006,0 -0.3339609,0.1742404 -0.1597204,0.2371606 -0.1597204,0.9292823 z"
       id="path4143"
       inkscape:connector-curvature="0" />
  </g>
</svg>
