<?xml version="1.0" encoding="utf-8"?>
<!-- Generator: Avocode 2.6.0 - http://avocode.com -->
<svg height="16" width="16" xmlns:xlink="http://www.w3.org/1999/xlink" xmlns="http://www.w3.org/2000/svg" viewBox="0 0 16 16">
    <path fill="#3f81c7" fill-rule="evenodd" d="M 8 16 C 12.42 16 16 12.42 16 8 C 16 3.58 12.42 0 8 0 C 3.58 0 0 3.58 0 8 C 0 12.42 3.58 16 8 16 Z M 8 16" />
    <path stroke-linejoin="miter" stroke-linecap="butt" stroke-width="0.5" stroke="#ffffff" fill="#ffffff" fill-rule="evenodd" d="M 8 9.5 L 6.24 10.43 L 6.57 8.46 L 5.15 7.07 L 7.12 6.79 L 8 5 L 8.88 6.79 L 10.85 7.07 L 9.43 8.46 L 9.76 10.43 L 8 9.5 Z M 8 9.5" />
</svg>