<?xml version="1.0" encoding="UTF-8" standalone="no"?>
<!-- Generator: Avocode 2.6.0 - http://avocode.com -->

<svg
   xmlns:dc="http://purl.org/dc/elements/1.1/"
   xmlns:cc="http://creativecommons.org/ns#"
   xmlns:rdf="http://www.w3.org/1999/02/22-rdf-syntax-ns#"
   xmlns:svg="http://www.w3.org/2000/svg"
   xmlns="http://www.w3.org/2000/svg"
   xmlns:sodipodi="http://sodipodi.sourceforge.net/DTD/sodipodi-0.dtd"
   xmlns:inkscape="http://www.inkscape.org/namespaces/inkscape"
   height="18"
   width="18"
   viewBox="0 0 18 18"
   id="svg2"
   version="1.1"
   inkscape:version="0.91 r13725"
   sodipodi:docname="toggle-on.svg">
  <metadata
     id="metadata12">
    <rdf:RDF>
      <cc:Work
         rdf:about="">
        <dc:format>image/svg+xml</dc:format>
        <dc:type
           rdf:resource="http://purl.org/dc/dcmitype/StillImage" />
      </cc:Work>
    </rdf:RDF>
  </metadata>
  <defs
     id="defs10" />
  <sodipodi:namedview
     pagecolor="#ffffff"
     bordercolor="#666666"
     borderopacity="1"
     objecttolerance="10"
     gridtolerance="10"
     guidetolerance="10"
     inkscape:pageopacity="0"
     inkscape:pageshadow="2"
     inkscape:window-width="1097"
     inkscape:window-height="524"
     id="namedview8"
     showgrid="false"
     inkscape:zoom="16"
     inkscape:cx="5.675345"
     inkscape:cy="8.7993578"
     inkscape:window-x="2831"
     inkscape:window-y="552"
     inkscape:window-maximized="0"
     inkscape:current-layer="svg2" />
  <path
     stroke-linejoin="miter"
     stroke-linecap="butt"
     stroke-width="1"
     stroke="#3f81c7"
     fill="#3f81c7"
     fill-rule="evenodd"
     d="M 9 16.84 C 13.42 16.84 17 13.29 17 8.92 C 17 4.55 13.42 1 9 1 C 4.58 1 1 4.55 1 8.92 C 1 13.29 4.58 16.84 9 16.84 Z M 9 16.84"
     id="path4" />
  <path
     d="m 12.4725,6.09 c -1.375495,1.8118958 -2.777118,3.6002918 -4.15,5.41 -0.02,0.03 -0.06,0.05 -0.1,0.06 -0.04,0 -0.07,-0.01 -0.1,-0.04 L 5.5925,9.1 c -0.04,-0.04 -0.12,-0.04 -0.16,0.01 -0.04,0.05 -0.04,0.13 0.01,0.17 l 2.52,2.42 c 0.07,0.06 0.16,0.1 0.25,0.1 l 0.03,0 c 0.1,-0.01 0.2,-0.06 0.26,-0.15 1.376214,-1.8087701 2.766989,-3.6063958 4.15,-5.41 0.04,-0.05 0.03,-0.13 -0.02,-0.17 -0.05,-0.04 -0.12,-0.04 -0.16,0.02 z"
     id="path6"
     inkscape:connector-curvature="0"
     style="fill:#ffffff;fill-rule:evenodd;stroke:#ffffff;stroke-width:1;stroke-linecap:butt;stroke-linejoin:miter"
     sodipodi:nodetypes="cccccsccscccsc" />
</svg>
