<?xml version="1.0" encoding="UTF-8" standalone="no"?>
<!-- Generator: Avocode 2.6.0 - http://avocode.com -->

<svg
   xmlns:dc="http://purl.org/dc/elements/1.1/"
   xmlns:cc="http://creativecommons.org/ns#"
   xmlns:rdf="http://www.w3.org/1999/02/22-rdf-syntax-ns#"
   xmlns:svg="http://www.w3.org/2000/svg"
   xmlns="http://www.w3.org/2000/svg"
   xmlns:sodipodi="http://sodipodi.sourceforge.net/DTD/sodipodi-0.dtd"
   xmlns:inkscape="http://www.inkscape.org/namespaces/inkscape"
   height="33"
   width="33"
   viewBox="0 0 33 33"
   id="svg2"
   version="1.1"
   inkscape:version="0.91 r13725"
   sodipodi:docname="credit-icon.svg">
  <metadata
     id="metadata14">
    <rdf:RDF>
      <cc:Work
         rdf:about="">
        <dc:format>image/svg+xml</dc:format>
        <dc:type
           rdf:resource="http://purl.org/dc/dcmitype/StillImage" />
      </cc:Work>
    </rdf:RDF>
  </metadata>
  <defs
     id="defs12" />
  <sodipodi:namedview
     pagecolor="#ffffff"
     bordercolor="#666666"
     borderopacity="1"
     objecttolerance="10"
     gridtolerance="10"
     guidetolerance="10"
     inkscape:pageopacity="0"
     inkscape:pageshadow="2"
     inkscape:window-width="2560"
     inkscape:window-height="1393"
     id="namedview10"
     showgrid="false"
     inkscape:zoom="10.11377"
     inkscape:cx="42.926347"
     inkscape:cy="21.512318"
     inkscape:window-x="2560"
     inkscape:window-y="23"
     inkscape:window-maximized="1"
     inkscape:current-layer="svg2" />
  <path
     fill="#9b9b9b"
     fill-rule="evenodd"
     d="M 16.5 33 C 25.61 33 33 25.61 33 16.5 C 33 7.39 25.61 0 16.5 0 C 7.39 0 0 7.39 0 16.5 C 0 25.61 7.39 33 16.5 33 Z M 16.5 33"
     id="path4"
     style="fill:#4a90e2;fill-opacity:1" />
  <g
     transform="scale(0.98080767,1.0195679)"
     style="font-weight:700;font-size:19.24530983px;font-family:'Helvetica Neue';fill:#ffffff"
     id="text6">
    <path
       d="m 20.433027,19.266034 q 0,-0.32717 0.01925,-0.731322 0.03849,-0.404151 0.173208,-0.750567 0.134717,-0.346415 0.384906,-0.577359 0.269435,-0.230944 0.731322,-0.230944 0.423397,0 0.654341,0.269435 0.250189,0.250189 0.365661,0.61585 0.115471,0.346415 0.134717,0.750567 0.03849,0.384906 0.03849,0.673585 0,0.307925 -0.03849,0.712077 -0.01925,0.384906 -0.153963,0.750567 -0.115472,0.346416 -0.384906,0.596605 -0.250189,0.250189 -0.692831,0.250189 -0.461888,0 -0.712077,-0.250189 -0.250189,-0.250189 -0.36566,-0.596605 -0.115472,-0.365661 -0.134718,-0.769812 -0.01925,-0.404152 -0.01925,-0.712077 z m -1.963022,-0.01925 q 0,0.789058 0.153963,1.481889 0.173208,0.692831 0.538869,1.212454 0.384906,0.500378 0.98151,0.789058 0.61585,0.28868 1.501135,0.28868 0.846793,0 1.462643,-0.269435 0.61585,-0.288679 1.000756,-0.789057 0.404152,-0.500378 0.596605,-1.173964 0.192453,-0.673586 0.192453,-1.462644 0,-0.789058 -0.153963,-1.481889 -0.153962,-0.692831 -0.538868,-1.193209 -0.365661,-0.519623 -0.962266,-0.808303 -0.596604,-0.307925 -1.501134,-0.307925 -0.846793,0 -1.462643,0.28868 -0.61585,0.288679 -1.020002,0.789057 -0.404151,0.500378 -0.596604,1.173964 -0.192454,0.673586 -0.192454,1.462644 z m 1.481889,-10.3732221 -7.967558,14.2992651 1.674342,0 7.929068,-14.2992651 -1.635852,0 z m -9.449447,4.0030241 q 0,-0.32717 0.01925,-0.750567 0.03849,-0.423397 0.173207,-0.789057 0.134717,-0.365661 0.384907,-0.61585 0.269434,-0.250189 0.731321,-0.250189 0.423397,0 0.654341,0.269434 0.250189,0.269434 0.365661,0.65434 0.115472,0.384907 0.134717,0.808303 0.03849,0.404152 0.03849,0.692832 0,0.307925 -0.03849,0.692831 -0.01924,0.365661 -0.153963,0.712076 -0.115471,0.327171 -0.384906,0.558114 -0.250189,0.230944 -0.692831,0.230944 -0.461887,0 -0.712076,-0.230944 -0.250189,-0.230943 -0.365661,-0.558114 -0.115472,-0.346415 -0.134717,-0.731322 -0.01925,-0.384906 -0.01925,-0.692831 z m -1.9630214,-0.03849 q 0,0.789057 0.1539625,1.481889 0.1732078,0.673585 0.5388687,1.173963 0.3849062,0.481133 0.9815112,0.769813 0.615849,0.269434 1.501134,0.269434 0.846793,0 1.462643,-0.269434 0.61585,-0.269434 1.000756,-0.750567 0.404152,-0.481133 0.596605,-1.135474 0.192453,-0.673585 0.192453,-1.462643 0,-0.789058 -0.153962,-1.501134 -0.153963,-0.712077 -0.538869,-1.2317 -0.365661,-0.5388687 -0.962266,-0.8467937 -0.596604,-0.3079249 -1.501134,-0.3079249 -0.846793,0 -1.462643,0.3079249 Q 9.7326348,9.624134 9.3284833,10.143757 8.9243318,10.663381 8.7318787,11.356212 8.5394256,12.049043 8.5394256,12.838101 Z"
       style="fill:#ffffff"
       id="path4136" />
  </g>
</svg>
