<?xml version="1.0" encoding="UTF-8" standalone="no"?>
<!-- Generator: Avocode 2.6.0 - http://avocode.com -->

<svg
   xmlns:dc="http://purl.org/dc/elements/1.1/"
   xmlns:cc="http://creativecommons.org/ns#"
   xmlns:rdf="http://www.w3.org/1999/02/22-rdf-syntax-ns#"
   xmlns:svg="http://www.w3.org/2000/svg"
   xmlns="http://www.w3.org/2000/svg"
   xmlns:sodipodi="http://sodipodi.sourceforge.net/DTD/sodipodi-0.dtd"
   xmlns:inkscape="http://www.inkscape.org/namespaces/inkscape"
   height="33"
   width="33"
   viewBox="0 0 33 33"
   id="svg2"
   version="1.1"
   inkscape:version="0.91 r13725"
   sodipodi:docname="fractional_ownership-icon.svg">
  <metadata
     id="metadata12">
    <rdf:RDF>
      <cc:Work
         rdf:about="">
        <dc:format>image/svg+xml</dc:format>
        <dc:type
           rdf:resource="http://purl.org/dc/dcmitype/StillImage" />
      </cc:Work>
    </rdf:RDF>
  </metadata>
  <defs
     id="defs10" />
  <sodipodi:namedview
     pagecolor="#ffffff"
     bordercolor="#666666"
     borderopacity="1"
     objecttolerance="10"
     gridtolerance="10"
     guidetolerance="10"
     inkscape:pageopacity="0"
     inkscape:pageshadow="2"
     inkscape:window-width="1570"
     inkscape:window-height="666"
     id="namedview8"
     showgrid="false"
     inkscape:zoom="14.30303"
     inkscape:cx="16.808706"
     inkscape:cy="16.708858"
     inkscape:window-x="821"
     inkscape:window-y="209"
     inkscape:window-maximized="0"
     inkscape:current-layer="svg2"
     inkscape:snap-global="false" />
  <path
     fill="#9b9b9b"
     fill-rule="evenodd"
     d="M 16.5 33 C 25.61 33 33 25.61 33 16.5 C 33 7.39 25.61 0 16.5 0 C 7.39 0 0 7.39 0 16.5 C 0 25.61 7.39 33 16.5 33 Z M 16.5 33"
     id="path4"
     style="fill:#4a90e2;fill-opacity:1" />
  <path
     d="m 23.962457,16.579322 -8.01,0 0,-8.01 c 0,-0.18 -0.14,-0.32 -0.32,-0.32 -4.78,0 -8.6599994,3.88 -8.6599994,8.65 0,4.78 3.8799994,8.66 8.6599994,8.66 4.77,0 8.65,-3.88 8.65,-8.66 0,-0.18 -0.14,-0.32 -0.32,-0.32 l 0,0 z m -8.33,8.33 c -4.42,0 -8.0099994,-3.59 -8.0099994,-8.01 0,-4.3 3.4199994,-7.83 7.6799994,-8 l 0,8 c 0,0.18 0.15,0.33 0.33,0.33 l 8,0 c -0.17,4.26 -3.7,7.68 -8,7.68 l 0,0 z m 3.1,-18.35 c -0.18,0 -0.32,0.15 -0.32,0.32 l 0,6.92 c 0,0.18 0.14,0.32 0.32,0.32 l 6.91,0 c 0.18,0 0.33,-0.14 0.33,-0.32 0,-3.99 -3.25,-7.24 -7.24,-7.24 l 0,0 z m 0.33,6.91 0,-6.25 c 3.37,0.16 6.09,2.88 6.25,6.25 l -6.25,0 0,0 z m 0,0"
     id="path6"
     inkscape:connector-curvature="0"
     style="fill:#ffffff;fill-rule:evenodd;stroke:#ffffff;stroke-width:0.30000001;stroke-linecap:butt;stroke-linejoin:miter" />
</svg>
