<?xml version="1.0" encoding="UTF-8" standalone="no"?>
<svg
   xmlns:dc="http://purl.org/dc/elements/1.1/"
   xmlns:cc="http://creativecommons.org/ns#"
   xmlns:rdf="http://www.w3.org/1999/02/22-rdf-syntax-ns#"
   xmlns:svg="http://www.w3.org/2000/svg"
   xmlns="http://www.w3.org/2000/svg"
   xmlns:sodipodi="http://sodipodi.sourceforge.net/DTD/sodipodi-0.dtd"
   xmlns:inkscape="http://www.inkscape.org/namespaces/inkscape"
   id="SvgjsSvg1000"
   version="1.1"
   width="197.5"
   height="198.5"
   inkscape:version="0.91 r13725"
   sodipodi:docname="profit.svg">
  <metadata
     id="metadata23">
    <rdf:RDF>
      <cc:Work
         rdf:about="">
        <dc:format>image/svg+xml</dc:format>
        <dc:type
           rdf:resource="http://purl.org/dc/dcmitype/StillImage" />
      </cc:Work>
    </rdf:RDF>
  </metadata>
  <sodipodi:namedview
     pagecolor="#ffffff"
     bordercolor="#666666"
     borderopacity="1"
     objecttolerance="10"
     gridtolerance="10"
     guidetolerance="10"
     inkscape:pageopacity="0"
     inkscape:pageshadow="2"
     inkscape:window-width="1297"
     inkscape:window-height="895"
     id="namedview21"
     showgrid="false"
     inkscape:snap-bbox="true"
     inkscape:bbox-paths="true"
     inkscape:snap-bbox-edge-midpoints="true"
     inkscape:bbox-nodes="true"
     inkscape:snap-bbox-midpoints="true"
     inkscape:object-paths="true"
     inkscape:snap-intersection-paths="true"
     inkscape:object-nodes="true"
     inkscape:snap-smooth-nodes="true"
     inkscape:snap-midpoints="true"
     inkscape:snap-object-midpoints="true"
     inkscape:snap-center="true"
     inkscape:snap-text-baseline="true"
     showguides="true"
     inkscape:guide-bbox="true"
     inkscape:zoom="2.8284271"
     inkscape:cx="87.087562"
     inkscape:cy="93.990621"
     inkscape:window-x="2874"
     inkscape:window-y="298"
     inkscape:window-maximized="0"
     inkscape:current-layer="g4155" />
  <defs
     id="SvgjsDefs1001" />
  <g
     id="g4155"
     transform="translate(-2.36,-3.715)">
    <path
       transform="translate(-661,-783)"
       stroke-miterlimit="50"
       d="M 762.12,965.76 C 806.79,965.76 843,929.55 843,884.88 843,840.21 806.79,804 762.12,804 717.45,804 681,840.21 681,884.88 c 0,44.67 36.45,80.88 81.12,80.88 z"
       id="SvgjsPath1011"
       inkscape:connector-curvature="0"
       style="fill:#ffffff;fill-opacity:0;stroke:#ffffff;stroke-width:1;stroke-linecap:butt;stroke-linejoin:miter;stroke-miterlimit:50;stroke-dasharray:none;stroke-opacity:1" />
    <path
       transform="translate(-661,-783)"
       stroke-miterlimit="50"
       d="m 844.5,839.5 -82,46"
       id="SvgjsPath1012"
       inkscape:connector-curvature="0"
       style="fill:#ffffff;fill-opacity:0;stroke:#ffffff;stroke-width:1;stroke-linecap:square;stroke-linejoin:miter;stroke-miterlimit:50;stroke-dasharray:none;stroke-opacity:1" />
    <path
       transform="translate(-661,-783)"
       stroke-miterlimit="50"
       d="m 679.5,839.5 82,46"
       id="SvgjsPath1013"
       inkscape:connector-curvature="0"
       style="fill:#ffffff;fill-opacity:0;stroke:#ffffff;stroke-width:1;stroke-linecap:square;stroke-linejoin:miter;stroke-miterlimit:50;stroke-dasharray:none;stroke-opacity:1" />
    <path
       transform="translate(-661,-783)"
       stroke-miterlimit="50"
       d="m 762,886 0,94"
       id="SvgjsPath1014"
       inkscape:connector-curvature="0"
       style="fill:#ffffff;fill-opacity:0;stroke:#ffffff;stroke-width:1;stroke-linecap:square;stroke-linejoin:miter;stroke-miterlimit:50;stroke-dasharray:none;stroke-opacity:1" />
    <path
       transform="translate(-661,-783)"
       stroke-miterlimit="50"
       d="m 762.25,980.93 c 52.45,0 94.97,-42.51 94.97,-94.96 C 857.22,833.52 814.7,791 762.25,791 709.8,791 667,833.52 667,885.97 c 0,52.45 42.8,94.96 95.25,94.96 z"
       id="SvgjsPath1015"
       inkscape:connector-curvature="0"
       style="fill:#ffffff;fill-opacity:0;stroke:#4a90e2;stroke-width:1;stroke-linecap:butt;stroke-linejoin:miter;stroke-miterlimit:50;stroke-dasharray:none;stroke-opacity:1" />
    <path
       style="fill:#b6b6b6;fill-opacity:1"
       inkscape:connector-curvature="0"
       d="m 101.39,197.47 c 52.19,0 94.5,-42.31 94.5,-94.5 0,-52.19 -42.31,-94.5 -94.5,-94.5 -52.19,0 -94.78,42.31 -94.78,94.5 0,52.19 42.59,94.5 94.78,94.5 z"
       id="SvgjsPath1016" />
    <g
       id="g4168"
       style="opacity:0.3">
      <path
         style="fill:#ffffff;fill-opacity:0;stroke:#ffffff;stroke-width:1;stroke-linecap:butt;stroke-linejoin:miter;stroke-miterlimit:50;stroke-dasharray:none;stroke-opacity:1"
         inkscape:connector-curvature="0"
         id="SvgjsPath1019"
         d="M 762.12,965.76 C 806.79,965.76 843,929.55 843,884.88 843,840.21 806.79,804 762.12,804 717.45,804 681,840.21 681,884.88 c 0,44.67 36.45,80.88 81.12,80.88 z"
         stroke-miterlimit="50"
         transform="translate(-661,-783)" />
      <path
         transform="translate(-661,-783)"
         style="fill:#ffffff;fill-opacity:0;stroke:#ffffff;stroke-width:1;stroke-linecap:square;stroke-linejoin:miter;stroke-miterlimit:50;stroke-dasharray:none;stroke-opacity:1"
         inkscape:connector-curvature="0"
         id="SvgjsPath1020"
         d="m 844.5,839.5 -82,46"
         stroke-miterlimit="50" />
      <path
         style="fill:#ffffff;fill-opacity:0;stroke:#ffffff;stroke-width:1;stroke-linecap:square;stroke-linejoin:miter;stroke-miterlimit:50;stroke-dasharray:none;stroke-opacity:1"
         inkscape:connector-curvature="0"
         id="SvgjsPath1021"
         d="m 679.5,839.5 82,46"
         stroke-miterlimit="50"
         transform="translate(-661,-783)" />
      <path
         style="fill:#ffffff;fill-opacity:0;stroke:#ffffff;stroke-width:1;stroke-linecap:square;stroke-linejoin:miter;stroke-miterlimit:50;stroke-dasharray:none;stroke-opacity:1"
         inkscape:connector-curvature="0"
         id="SvgjsPath1022"
         d="m 762,886 0,94"
         stroke-miterlimit="50"
         transform="translate(-661,-783)" />
    </g>
    <path
       transform="translate(-661,-783)"
       stroke-miterlimit="50"
       d="m 762.25,980.93 c 52.45,0 94.97,-42.51 94.97,-94.96 C 857.22,833.52 814.7,791 762.25,791 709.8,791 667,833.52 667,885.97 c 0,52.45 42.8,94.96 95.25,94.96 z"
       id="SvgjsPath1023"
       inkscape:connector-curvature="0"
       style="fill:#ffffff;fill-opacity:0;stroke:#4a90e2;stroke-width:1;stroke-linecap:butt;stroke-linejoin:miter;stroke-miterlimit:50;stroke-dasharray:none;stroke-opacity:1" />
  </g>
</svg>
